C:\Users\pguevarl\Documents\CLARO\claro-inte-gestionEveris\claro-rest-api-client\src\main\java\pe\com\claro\restclient\entity\AuthenticationMode.java
C:\Users\pguevarl\Documents\CLARO\claro-inte-gestionEveris\claro-rest-api-client\src\main\java\pe\com\claro\restclient\AbstractRestClient.java
C:\Users\pguevarl\Documents\CLARO\claro-inte-gestionEveris\claro-rest-api-client\src\main\java\pe\com\claro\restclient\exception\ErrorResponse.java
C:\Users\pguevarl\Documents\CLARO\claro-inte-gestionEveris\claro-rest-api-client\src\main\java\pe\com\claro\restclient\entity\AuthenticationToken.java
C:\Users\pguevarl\Documents\CLARO\claro-inte-gestionEveris\claro-rest-api-client\src\main\java\pe\com\claro\restclient\RestClient.java
