C:\Users\pguevarl\Documents\CLARO\claro-inte-gestionEveris\claro-common\src\main\java\pe\com\claro\common\property\Constantes.java
C:\Users\pguevarl\Documents\CLARO\claro-inte-gestionEveris\claro-common\src\main\java\pe\com\claro\common\bean\HeaderRequest.java
C:\Users\pguevarl\Documents\CLARO\claro-inte-gestionEveris\claro-common\src\main\java\pe\com\claro\common\util\PropertiesExternos.java
C:\Users\pguevarl\Documents\CLARO\claro-inte-gestionEveris\claro-common\src\main\java\pe\com\claro\common\property\JAXBUtilitarios.java
C:\Users\pguevarl\Documents\CLARO\claro-inte-gestionEveris\claro-common\src\main\java\pe\com\claro\common\exception\DBException.java
C:\Users\pguevarl\Documents\CLARO\claro-inte-gestionEveris\claro-common\src\main\java\pe\com\claro\common\util\ClaroUtil.java
C:\Users\pguevarl\Documents\CLARO\claro-inte-gestionEveris\claro-common\src\main\java\pe\com\claro\common\exception\ConvertException.java
C:\Users\pguevarl\Documents\CLARO\claro-inte-gestionEveris\claro-common\src\main\java\pe\com\claro\common\exception\MappingResponseException.java
C:\Users\pguevarl\Documents\CLARO\claro-inte-gestionEveris\claro-common\src\main\java\pe\com\claro\common\exception\NoExitoException.java
C:\Users\pguevarl\Documents\CLARO\claro-inte-gestionEveris\claro-common\src\main\java\pe\com\claro\common\property\GeneralRuntimeException.java
C:\Users\pguevarl\Documents\CLARO\claro-inte-gestionEveris\claro-common\src\main\java\pe\com\claro\common\property\ConverterUtil.java
C:\Users\pguevarl\Documents\CLARO\claro-inte-gestionEveris\claro-common\src\main\java\pe\com\claro\common\util\UtilList.java
C:\Users\pguevarl\Documents\CLARO\claro-inte-gestionEveris\claro-common\src\main\java\pe\com\claro\common\bean\BodyResponse.java
C:\Users\pguevarl\Documents\CLARO\claro-inte-gestionEveris\claro-common\src\main\java\pe\com\claro\common\bean\HeaderRequestBean.java
C:\Users\pguevarl\Documents\CLARO\claro-inte-gestionEveris\claro-common\src\main\java\pe\com\claro\common\exception\BaseException.java
C:\Users\pguevarl\Documents\CLARO\claro-inte-gestionEveris\claro-common\src\main\java\pe\com\claro\common\property\ConstantesValidacion.java
